<svg xmlns="http://www.w3.org/2000/svg" width="33.471" height="33.471" viewBox="0 0 33.471 33.471">
  <g id="dark" transform="translate(0 0.001)">
    <path id="Path_1616" data-name="Path 1616" d="M32.441,37.631A13.075,13.075,0,1,1,10.156,24.755a.505.505,0,0,0-.6-.781,16.737,16.737,0,1,0,23.92,15.12q0-.669-.052-1.325A.506.506,0,0,0,32.441,37.631Z" transform="translate(0 -22.36)" fill="#fff"/>
    <path id="Path_1617" data-name="Path 1617" d="M147.318,229.025a.506.506,0,0,0-.979-.139,13.16,13.16,0,0,1-1.036,2.2,13.3,13.3,0,0,1-1.009,1.479,16.735,16.735,0,0,1-22.43,12.027,16.724,16.724,0,0,0,25.5-14.246Q147.37,229.68,147.318,229.025Z" transform="translate(-113.898 -213.614)" fill="#fff"/>
    <path id="Path_1618" data-name="Path 1618" d="M228.011,4.171a12.257,12.257,0,0,0-3.479,3.48.326.326,0,0,1-.544,0,12.283,12.283,0,0,0-3.481-3.48.326.326,0,0,1,0-.544A12.327,12.327,0,0,0,223.987.145a.326.326,0,0,1,.544,0,12.3,12.3,0,0,0,3.48,3.482A.326.326,0,0,1,228.011,4.171Z" transform="translate(-205.953)" fill="#fff"/>
    <path id="Path_1619" data-name="Path 1619" d="M263.327.146q-.283.428-.6.832a12.308,12.308,0,0,0,2.2,2.036.677.677,0,0,1,0,1.1,12.255,12.255,0,0,0-2.477,2.371,12.328,12.328,0,0,1,.876,1.169.326.326,0,0,0,.544,0,12.258,12.258,0,0,1,3.479-3.48.326.326,0,0,0,0-.544,12.3,12.3,0,0,1-3.48-3.482.326.326,0,0,0-.544,0Z" transform="translate(-245.293 -0.001)" fill="#fff"/>
    <g id="Group_787" data-name="Group 787" transform="translate(15.832 8.646)">
      <path id="Path_1620" data-name="Path 1620" d="M246,138.4a6.129,6.129,0,0,0-1.74,1.74.163.163,0,0,1-.272,0,6.142,6.142,0,0,0-1.741-1.74.163.163,0,0,1,0-.272,6.166,6.166,0,0,0,1.741-1.741.163.163,0,0,1,.272,0,6.15,6.15,0,0,0,1.74,1.741.163.163,0,0,1,0,.272Zm7.114-3a9.193,9.193,0,0,0-2.443,2.444.327.327,0,0,1-.541,0,9.214,9.214,0,0,0-2.445-2.444.327.327,0,0,1,0-.542,9.245,9.245,0,0,0,2.445-2.445.327.327,0,0,1,.541,0,9.227,9.227,0,0,0,2.444,2.445A.327.327,0,0,1,253.116,135.4Z" transform="translate(-242.176 -132.267)" fill="#fff"/>
    </g>
  </g>
</svg>
