<svg xmlns="http://www.w3.org/2000/svg" width="23.303" height="23.302" viewBox="0 0 23.303 23.302">
  <g id="go" transform="translate(-19.055 -6.757) rotate(-45)">
    <path id="Path_1895" data-name="Path 1895" d="M17.285,35.262a1.34,1.34,0,0,0,.065-.208c0-.017.012-.033.015-.051a1.372,1.372,0,0,0,0-.549c0-.017-.011-.034-.015-.051a1.343,1.343,0,0,0-.065-.208c0-.011-.012-.021-.017-.032a1.368,1.368,0,0,0-.277-.406L10.582,27.35a1.373,1.373,0,1,0-1.942,1.942L12.7,33.356H1.373a1.373,1.373,0,1,0,0,2.746H12.7L8.641,40.166a1.373,1.373,0,1,0,1.942,1.942L16.99,35.7a1.368,1.368,0,0,0,.277-.406C17.273,35.283,17.28,35.273,17.285,35.262Z" fill="#a2a9b7"/>
  </g>
</svg>
