<svg xmlns="http://www.w3.org/2000/svg" width="23.75" height="22.434" viewBox="0 0 23.75 22.434">
  <g id="Group_1140" data-name="Group 1140" transform="translate(206.244 -18.23)">
    <g id="filter" transform="translate(-206.244 18.23)">
      <path id="Path_1771" data-name="Path 1771" d="M26.289,8H7.47a2.468,2.468,0,0,0-1.826,4.126L13.8,21.1v8.459a.88.88,0,0,0,.5.792.853.853,0,0,0,.383.088.88.88,0,0,0,.55-.194l1.65-1.32,2.749-2.2a.88.88,0,0,0,.33-.686V21.1l8.156-8.969A2.468,2.468,0,0,0,26.289,8Z" transform="translate(-5.004 -8)" fill="#148579"/>
    </g>
    <g id="Rectangle_266" data-name="Rectangle 266" transform="translate(-184.896 20.225) rotate(45)" fill="#fff" stroke="#fff" stroke-linecap="round" stroke-width="1">
      <rect width="1.676" height="7.542" rx="0.838" stroke="none"/>
      <rect x="0.5" y="0.5" width="0.676" height="6.542" rx="0.338" fill="none"/>
    </g>
  </g>
</svg>
