<svg xmlns="http://www.w3.org/2000/svg" width="16.311" height="19.032" viewBox="0 0 16.311 19.032">
  <path id="Icon_fa-solid-play" data-name="Icon fa-solid-play" d="M3.1,2.546A2.038,2.038,0,0,0,0,4.287V19.239A2.038,2.038,0,0,0,3.1,20.98L15.334,13.5a2.041,2.041,0,0,0,0-3.483Z" transform="translate(0 -2.246)" fill="#0f79a5"/>
</svg>
