<svg xmlns="http://www.w3.org/2000/svg" width="14.309" height="10.221" viewBox="0 0 14.309 10.221">
  <path id="Icon_akar-triangle-down-fill" data-name="Icon akar-triangle-down-fill" d="M8.522,12A1.022,1.022,0,0,0,7.7,13.635l6.132,8.177a1.022,1.022,0,0,0,1.635,0L21.6,13.635A1.022,1.022,0,0,0,20.787,12Z" transform="translate(-7.5 -12)" fill="#fff"/>
</svg>
