<svg xmlns="http://www.w3.org/2000/svg" width="33.441" height="40.346" viewBox="0 0 33.441 40.346">
  <g id="IdentityProvider" transform="translate(-652 -284.489)">
    <g id="name_profile" data-name="name profile" transform="translate(652 284.489)">
      <circle id="Ellipse_74" data-name="Ellipse 74" cx="7.163" cy="7.163" r="7.163" transform="translate(5.477)" fill="#148579"/>
      <path id="Path_1725" data-name="Path 1725" d="M66.535,256A12.64,12.64,0,0,0,53.9,268.64a3.371,3.371,0,0,0,3.371,3.371H75.8a3.371,3.371,0,0,0,3.371-3.371A12.64,12.64,0,0,0,66.535,256Z" transform="translate(-53.895 -239.989)" fill="#148579"/>
    </g>
    <g id="Group_1353" data-name="Group 1353" transform="translate(696.271 229.767) rotate(45)">
      <path id="Path_1830" data-name="Path 1830" d="M99.459,221.206a.432.432,0,0,0,.633,0l2.4-2.582v-1.01l-1.641-1.487,1.641-1.487-1.641-1.485,1.641-1.487v-5.317a5.742,5.742,0,1,0-5.438,0v12.272l2.4,2.582Z" transform="translate(-58.848 -133.566)" fill="#ffe177" fill-rule="evenodd"/>
      <path id="Path_1832" data-name="Path 1832" d="M140.7,227.857a1.707,1.707,0,1,0,1.706-1.708,1.706,1.706,0,0,0-1.706,1.708Z" transform="translate(-101.478 -161.517)" fill="#eceff1" fill-rule="evenodd"/>
    </g>
  </g>
</svg>
