<svg id="light_and_dark" data-name="light and dark" xmlns="http://www.w3.org/2000/svg" width="35.298" height="35.298" viewBox="0 0 35.298 35.298">
  <circle id="Ellipse_62" data-name="Ellipse 62" cx="8.5" cy="8.5" r="8.5" transform="translate(9 9)" fill="#fff"/>
  <path id="Path_1615" data-name="Path 1615" d="M17.649,29.415a1.471,1.471,0,0,0-1.471,1.471v2.942a1.471,1.471,0,0,0,2.942,0V30.886A1.471,1.471,0,0,0,17.649,29.415Zm0-23.532A1.471,1.471,0,0,0,19.12,4.412V1.471a1.471,1.471,0,0,0-2.942,0V4.412A1.471,1.471,0,0,0,17.649,5.883ZM5.883,17.649a1.471,1.471,0,0,0-1.471-1.471H1.471a1.471,1.471,0,0,0,0,2.942H4.412A1.471,1.471,0,0,0,5.883,17.649Zm27.945-1.471H30.886a1.471,1.471,0,0,0,0,2.942h2.942a1.471,1.471,0,0,0,0-2.942Zm-5.779,9.791a1.471,1.471,0,1,0-2.08,2.08l2.08,2.08a1.488,1.488,0,0,0,2.08,0,1.471,1.471,0,0,0,0-2.08ZM7.249,9.329a1.487,1.487,0,0,0,2.08,0,1.471,1.471,0,0,0,0-2.08L7.249,5.17A1.471,1.471,0,1,0,5.17,7.25Zm0,16.64-2.08,2.08a1.471,1.471,0,0,0,0,2.08,1.487,1.487,0,0,0,2.08,0l2.08-2.08a1.471,1.471,0,1,0-2.08-2.08ZM27.009,9.742a1.462,1.462,0,0,0,1.04-.413l2.08-2.08a1.471,1.471,0,1,0-2.08-2.08l-2.08,2.08a1.453,1.453,0,0,0,1.04,2.493Z" fill="#fff"/>
</svg>
