<svg xmlns="http://www.w3.org/2000/svg" width="34.015" height="33.985" viewBox="0 0 34.015 33.985">
  <g id="linkicon" transform="translate(-0.993 -1.008)">
    <path id="Path_1878" data-name="Path 1878" d="M15,19.5a7.5,7.5,0,0,0,11.31.81l4.5-4.5A7.5,7.5,0,1,0,20.2,5.2L17.625,7.77" fill="none" stroke="#1c68d8" stroke-linecap="round" stroke-linejoin="round" stroke-width="4"/>
    <path id="Path_1879" data-name="Path 1879" d="M21,16.5a7.5,7.5,0,0,0-11.31-.81l-4.5,4.5A7.5,7.5,0,1,0,15.8,30.8L18.36,28.23" fill="none" stroke="#1c68d8" stroke-linecap="round" stroke-linejoin="round" stroke-width="4"/>
  </g>
</svg>
