<svg xmlns="http://www.w3.org/2000/svg" width="218" height="138.776" viewBox="0 0 218 138.776">
  <g id="Permissionsicon" transform="translate(0 -13.224)">
    <path id="Path_1630" data-name="Path 1630" d="M16,0H202a16,16,0,0,1,16,16V69a16,16,0,0,1-16,16H16A16,16,0,0,1,0,69V16A16,16,0,0,1,16,0Z" transform="translate(0 67)" fill="#a3aab8"/>
    <g id="permissions" transform="translate(-9.199 -68.776)">
      <path id="Path_1845" data-name="Path 1845" d="M85.2,155.989V84.164A2.163,2.163,0,0,1,87.364,82h48.619l12.789,12.789v61.206a2.163,2.163,0,0,1-2.164,2.164H87.364A2.167,2.167,0,0,1,85.2,155.989Z" fill="#e1efff"/>
      <path id="Path_1846" data-name="Path 1846" d="M263.715,82V94.789H276.5ZM257.1,111.922H221.4a1.3,1.3,0,0,1,0-2.595h35.7a1.3,1.3,0,1,1,0,2.595Zm-3.191,9.455h-17.33a1.3,1.3,0,1,1,0-2.6h17.33a1.3,1.3,0,1,1,0,2.6Zm-22.031,0H221.4a1.3,1.3,0,1,1,0-2.6h10.476a1.3,1.3,0,1,1,0,2.6Zm1.016-18.909H221.4a1.3,1.3,0,0,1,0-2.6h11.5a1.3,1.3,0,0,1,0,2.6Zm35.139,0H237.808a1.3,1.3,0,0,1,0-2.595h30.22a1.3,1.3,0,0,1,.005,2.595Zm-13.565-9.46H221.4a1.3,1.3,0,0,1,0-2.595h33.065a1.3,1.3,0,0,1,.005,2.595ZM251.2,130.832H221.4a1.3,1.3,0,0,1,0-2.6h29.8a1.3,1.3,0,0,1,.005,2.6Zm2.707,9.46H240.014a1.3,1.3,0,0,1,0-2.595h13.9a1.3,1.3,0,1,1-.005,2.595Zm-18.3,0H221.4a1.3,1.3,0,0,1,0-2.595h14.209a1.3,1.3,0,1,1,0,2.595Zm21.914,9.455H221.4a1.3,1.3,0,0,1,0-2.595h36.117a1.3,1.3,0,0,1,.005,2.595Z" transform="translate(-127.727)" fill="#b0ccdd"/>
      <path id="Path_1847" data-name="Path 1847" d="M973.192,595.565v-13.15a10.159,10.159,0,1,0-20.319-.08v2.994a2.287,2.287,0,1,1-4.573,0V582.34a14.74,14.74,0,1,1,29.481,0v13.23h-4.589Z" transform="translate(-817.204 -459.778)" fill="#cfd8dd"/>
      <path id="Path_1848" data-name="Path 1848" d="M875.192,1054.545H838.027a2.126,2.126,0,0,1-2.127-2.127v-27.391a2.126,2.126,0,0,1,2.127-2.127h37.165a2.126,2.126,0,0,1,2.127,2.127v27.391A2.126,2.126,0,0,1,875.192,1054.545Z" transform="translate(-710.781 -890.867)" fill="#f7e07f"/>
      <path id="Path_1849" data-name="Path 1849" d="M1153.961,1196.542v4.313a1.946,1.946,0,1,1-3.892,0v-4.312a4.116,4.116,0,1,1,3.892,0Z" transform="translate(-1006.189 -1047.945)" fill="#ebcd6d"/>
    </g>
  </g>
</svg>
