<svg xmlns="http://www.w3.org/2000/svg" width="34.587" height="39.522" viewBox="0 0 34.587 39.522">
  <g id="userdetails" transform="translate(8)">
    <g id="Human_Source" data-name="Human Source" transform="translate(-8)">
      <rect id="Rectangle_278" data-name="Rectangle 278" width="23" height="32" rx="4" fill="#a6ddd8"/>
      <path id="Path_1850" data-name="Path 1850" d="M30.507,6V31.909a2.468,2.468,0,0,1-2.468,2.468H12V9.7A3.7,3.7,0,0,1,15.7,6Z" transform="translate(-7.065 -2.299)" fill="#00bebd"/>
      <path id="Path_1851" data-name="Path 1851" d="M37.442,13.552V37.611a2.468,2.468,0,0,1-2.468,2.468H16.468A2.468,2.468,0,0,1,14,37.611V10.468A2.468,2.468,0,0,1,16.468,8H31.89Z" transform="translate(-7.831 -3.065)" fill="#f3f3f3"/>
      <path id="Path_1852" data-name="Path 1852" d="M48.552,13.552H44.234A1.234,1.234,0,0,1,43,12.318V8Z" transform="translate(-18.941 -3.065)" fill="#d9d9d9"/>
      <path id="Path_1853" data-name="Path 1853" d="M40.3,45.529a1.234,1.234,0,0,1-.87-.364l-8.02-8.02a1.234,1.234,0,0,1,1.74-1.74l8.02,8.02a1.234,1.234,0,0,1-.87,2.1Z" transform="translate(-14.386 -13.451)" fill="#50d9d7"/>
      <ellipse id="Ellipse_83" data-name="Ellipse 83" cx="9.5" cy="9" rx="9.5" ry="9" transform="translate(8 14)" fill="#4ebbb2"/>
      <circle id="Ellipse_84" data-name="Ellipse 84" cx="7.5" cy="7.5" r="7.5" transform="translate(10 16)" fill="#fff"/>
      <path id="Path_1854" data-name="Path 1854" d="M38.5,44.53l-1.592,1.592a.617.617,0,0,0,0,.876l6.453,6.453a1.746,1.746,0,1,0,2.468-2.468L39.374,44.53a.617.617,0,0,0-.876,0Zm-3.473-4.139a6.169,6.169,0,0,1-10.684,0A6.243,6.243,0,0,1,27.258,37.8a4.318,4.318,0,0,0,4.849,0A6.243,6.243,0,0,1,35.024,40.391Z" transform="translate(-11.793 -14.482)" fill="#ffac00"/>
      <circle id="Ellipse_85" data-name="Ellipse 85" cx="3" cy="3" r="3" transform="translate(15 17)" fill="#ffac00"/>
      <g id="Group_1182" data-name="Group 1182" transform="translate(8.636 9.253)">
        <path id="Path_1855" data-name="Path 1855" d="M18,15h6.169v1.234H18Zm0,2.468h3.7V18.7H18Zm0,20.974h3.7v1.234H18Z" transform="translate(-18 -15)" fill="#d9d9d9"/>
      </g>
    </g>
  </g>
</svg>
